Ancestral state reconstruction explore
…
## Parsed with column specification:
## cols(
##   Loc = col_character(),
##   REF = col_character(),
##   ALT = col_character(),
##   panTro5 = col_character(),
##   gorGor5 = col_character(),
##   ponAbe2 = col_character(),
##   rheMac8 = col_character()
## )

snps

## # A tibble: 103 x 7
##    Loc              REF   ALT   panTro5 gorGor5 ponAbe2 rheMac8
##    <chr>            <chr> <chr> <chr>   <chr>   <chr>   <chr>  
##  1 chr8:127003323:+ G     A     A       G       T       <NA>   
##  2 chr8:127020391:+ T     C     C       T       G       <NA>   
##  3 chr8:127020391:+ T     G     C       T       G       <NA>   
##  4 chr8:127028020:+ C     G     T       G       G       <NA>   
##  5 chr8:127043969:+ G     A     C       G       <NA>    T      
##  6 chr8:127043969:+ G     C     C       G       <NA>    T      
##  7 chr8:127045623:+ C     G     C       T       <NA>    A      
##  8 chr8:127045623:+ C     T     C       T       <NA>    A      
##  9 chr8:127045715:+ C     T     C       A       <NA>    T      
## 10 chr8:127046997:+ G     A     C       C       T       <NA>   
## #  with 93 more rows
…
