Check strands with liftOver
…
data <- tibble::data_frame(
    pos = start(rg_flat),
    match.panTro5 =  rg_flat$REF == rg_flat$dna.panTro5,
    match.ponAde2 =  rg_flat$REF == rg_flat$dna.ponAbe2,
    match.gorGor5 =  rg_flat$REF == rg_flat$dna.gorGor5
    #consit.ancestor =  rg_flat$dna.panTro5 == rg_flat$dna.ponAbe2
)
data

## # A tibble: 167,359 x 4
##      pos match.panTro5 match.ponAde2 match.gorGor5
##    <int> <lgl>         <lgl>         <lgl>        
##  1 76001 TRUE          TRUE          TRUE         
##  2 76004 TRUE          TRUE          TRUE         
##  3 76005 TRUE          FALSE         TRUE         
##  4 76015 TRUE          TRUE          TRUE         
##  5 76017 TRUE          TRUE          TRUE         
##  6 76020 TRUE          TRUE          TRUE         
##  7 76021 TRUE          TRUE          TRUE         
##  8 76023 FALSE         FALSE         FALSE        
##  9 76026 TRUE          TRUE          FALSE        
## 10 76034 TRUE          TRUE          TRUE         
## # ... with 167,349 more rows
…
